{"Nodes":[],"ExecutionTime":"2024-02-22T13:37:53.0393252Z","GenerationTime":"0001-01-01T00:00:00","PluginUserSpecFlowId":"61bc75bc-40a1-4cc6-bb43-782da8ff12a1","CLIUserSpecFlowId":null,"ExecutionResults":[{"ContextType":"Scenario","FeatureFolderPath":"Features/API","FeatureTitle":"Feature1","ScenarioTitle":"First API Call","ScenarioArguments":[],"Status":"OK","StepResults":[{"Duration":"00:00:00.1828876","Status":"OK","Error":null,"Outputs":[{"OutputLocation":"Step","Type":"Text","Message":"{\"page\":2,\"per_page\":6,\"total\":12,\"total_pages\":2,\"data\":[{\"id\":7,\"email\":\"michael.lawson@reqres.in\",\"first_name\":\"Michael\",\"last_name\":\"Lawson\",\"avatar\":\"https://reqres.in/img/faces/7-image.jpg\"},{\"id\":8,\"email\":\"lindsay.ferguson@reqres.in\",\"first_name\":\"Lindsay\",\"last_name\":\"Ferguson\",\"avatar\":\"https://reqres.in/img/faces/8-image.jpg\"},{\"id\":9,\"email\":\"tobias.funke@reqres.in\",\"first_name\":\"Tobias\",\"last_name\":\"Funke\",\"avatar\":\"https://reqres.in/img/faces/9-image.jpg\"},{\"id\":10,\"email\":\"byron.fields@reqres.in\",\"first_name\":\"Byron\",\"last_name\":\"Fields\",\"avatar\":\"https://reqres.in/img/faces/10-image.jpg\"},{\"id\":11,\"email\":\"george.edwards@reqres.in\",\"first_name\":\"George\",\"last_name\":\"Edwards\",\"avatar\":\"https://reqres.in/img/faces/11-image.jpg\"},{\"id\":12,\"email\":\"rachel.howell@reqres.in\",\"first_name\":\"Rachel\",\"last_name\":\"Howell\",\"avatar\":\"https://reqres.in/img/faces/12-image.jpg\"}],\"support\":{\"url\":\"https://reqres.in/#support-heading\",\"text\":\"To keep ReqRes free, contributions towards server costs are appreciated!\"}}","FilePath":null},{"OutputLocation":"Step","Type":"Text","Message":"After deserialzation value is 2","FilePath":null},{"OutputLocation":"Step","Type":"Text","Message":"7","FilePath":null},{"OutputLocation":"Step","Type":"Text","Message":"michael.lawson@reqres.in","FilePath":null},{"OutputLocation":"Step","Type":"Text","Message":"8","FilePath":null},{"OutputLocation":"Step","Type":"Text","Message":"lindsay.ferguson@reqres.in","FilePath":null},{"OutputLocation":"Step","Type":"Text","Message":"9","FilePath":null},{"OutputLocation":"Step","Type":"Text","Message":"tobias.funke@reqres.in","FilePath":null},{"OutputLocation":"Step","Type":"Text","Message":"10","FilePath":null},{"OutputLocation":"Step","Type":"Text","Message":"byron.fields@reqres.in","FilePath":null},{"OutputLocation":"Step","Type":"Text","Message":"11","FilePath":null},{"OutputLocation":"Step","Type":"Text","Message":"george.edwards@reqres.in","FilePath":null},{"OutputLocation":"Step","Type":"Text","Message":"12","FilePath":null},{"OutputLocation":"Step","Type":"Text","Message":"rachel.howell@reqres.in","FilePath":null}]},{"Duration":"00:00:00.3357877","Status":"OK","Error":null,"Outputs":null},{"Duration":"00:00:00.0017994","Status":"OK","Error":null,"Outputs":null},{"Duration":"00:00:00.0005687","Status":"OK","Error":null,"Outputs":null}],"Outputs":null}],"StepReports":null}